mod 8
i2 64
b 1
ram 8
eq 0
ult 2
mul 6
and 2
xor 5
div 7
neq 1
add 0
stack 10
max 10
bxor 4
sp 9
c 2
iar 6
bnand 6
e 4
or 3
call 40
sub 1
a 0
d 3
not 4
ule 3
i1 128
j 32
bor 5
f 5
band 7
min 9
nand 4
io 7